How To Use Rstockwatch Package • Rstockwatch
…
Usage and Example

After the successful installation of this package user are recommend to restart the R session to update any dependencies packages. The functions in this package require input four parameters: stock_ticker, start_date, end_date and benchmark_ticker. Output results are in form of an plot based on “ggplot” package.

Import the functions from package with following commands:

library(Rstockwatch)

1. To check the profit percent

percent_change('AAPL', '2015-01-01', '2021-12-31')
#> Registered S3 method overwritten by 'quantmod':
#>   method            from
#>   as.zoo.data.frame zoo
#> # A tibble: 1,762 x 2
#>    date       percent_change
#>    <date>              <dbl>
#>  1 2015-01-02          0    
#>  2 2015-01-05         -0.028
#>  3 2015-01-06         -0.028
#>  4 2015-01-07         -0.014
#>  5 2015-01-08          0.023
#>  6 2015-01-09          0.025
#>  7 2015-01-12         -0.001
#>  8 2015-01-13          0.008
#>  9 2015-01-14          0.004
#> 10 2015-01-15         -0.023
#> # ... with 1,752 more rows
…
3. To check daily trading volume change of a stock

volume_change('AAPL', '2021-01-01', '2021-12-31')
#> # A tibble: 251 x 3
#>    date          volume Price_change
#>    <date>         <dbl> <chr>       
#>  1 2021-01-04 143301900 Increase    
#>  2 2021-01-05  97664900 Increase    
#>  3 2021-01-06 155088000 Decrease    
#>  4 2021-01-07 109578200 Increase    
#>  5 2021-01-08 105158200 Increase    
#>  6 2021-01-11 100384500 Decrease    
#>  7 2021-01-12  91951100 Decrease    
#>  8 2021-01-13  88636800 Increase    
#>  9 2021-01-14  90221800 Decrease    
#> 10 2021-01-15 111598500 Decrease    
#> # ... with 241 more rows
…
